source/MFixPoint_ToolBox/wave.vcd
$date
	Wed Apr 08 20:17:23 2015
$end
$version
	Icarus Verilog
$end
$timescale
	1s
$end
$scope module MFP_Adder_Arr $end
$var wire 64 ! In1Arr [63:0] $end
$var wire 64 " In2Arr [63:0] $end
$var wire 64 # OutArr [63:0] $end
$scope begin oparr[0] $end
$scope module a0 $end
$var wire 16 $ In1 [15:0] $end
$var wire 16 % In2 [15:0] $end
$var wire 1 & IsSameSign $end
$var wire 1 ' IsSignChanged $end
$var wire 16 ( Out [15:0] $end
$var wire 16 ) TestAdd [15:0] $end
$scope begin genblk4 $end
$scope begin genblk5 $end
$upscope $end
$upscope $end
$upscope $end
$upscope $end
$scope begin oparr[1] $end
$scope module a0 $end
$var wire 16 * In1 [15:0] $end
$var wire 16 + In2 [15:0] $end
$var wire 1 , IsSameSign $end
$var wire 1 - IsSignChanged $end
$var wire 16 . Out [15:0] $end
$var wire 16 / TestAdd [15:0] $end
$scope begin genblk4 $end
$scope begin genblk5 $end
$upscope $end
$upscope $end
$upscope $end
$upscope $end
$scope begin oparr[2] $end
$scope module a0 $end
$var wire 16 0 In1 [15:0] $end
$var wire 16 1 In2 [15:0] $end
$var wire 1 2 IsSameSign $end
$var wire 1 3 IsSignChanged $end
$var wire 16 4 Out [15:0] $end
$var wire 16 5 TestAdd [15:0] $end
$scope begin genblk4 $end
$scope begin genblk5 $end
$upscope $end
$upscope $end
$upscope $end
$upscope $end
$scope begin oparr[3] $end
$scope module a0 $end
$var wire 16 6 In1 [15:0] $end
$var wire 16 7 In2 [15:0] $end
$var wire 1 8 IsSameSign $end
$var wire 1 9 IsSignChanged $end
$var wire 16 : Out [15:0] $end
$var wire 16 ; TestAdd [15:0] $end
$scope begin genblk4 $end
$scope begin genblk5 $end
$upscope $end
$upscope $end
$upscope $end
$upscope $end
$upscope $end
$scope module MFP_MAC_Seq $end
$var wire 8 < In1 [7:0] $end
$var wire 8 = In2 [7:0] $end
$var wire 15 > acc_sum_pre [14:0] $end
$var wire 15 ? acc_sum_rounded [14:0] $end
$var wire 1 @ aclr $end
$var wire 1 A clock $end
$var wire 15 B product [14:0] $end
$var wire 15 C product_rounded [14:0] $end
$var reg 15 D acc_sum [14:0] $end
$scope module m1 $end
$var wire 8 E In1 [7:0] $end
$var wire 8 F In2 [7:0] $end
$var wire 15 G Out [14:0] $end
$var wire 15 H Out_ [14:0] $end
$scope module roun $end
$var wire 15 I in [14:0] $end
$var wire 15 J out [14:0] $end
$scope begin genblk4 $end
$upscope $end
$upscope $end
$scope begin genblk2 $end
$var wire 8 K In1_s [7:0] $end
$var wire 8 L In2_s [7:0] $end
$var wire 15 M Out_s [14:0] $end
$upscope $end
$upscope $end
$scope module round_prod $end
$var wire 15 N in [14:0] $end
$var wire 15 O out [14:0] $end
$scope begin genblk4 $end
$upscope $end
$upscope $end
$scope module aS $end
$var wire 15 P In1 [14:0] $end
$var wire 15 Q In2 [14:0] $end
$var wire 1 R IsSameSign $end
$var wire 1 S IsSignChanged $end
$var wire 15 T Out [14:0] $end
$var wire 15 U TestAdd [14:0] $end
$scope begin genblk4 $end
$scope begin genblk5 $end
$upscope $end
$upscope $end
$upscope $end
$scope module round_acc $end
$var wire 15 V in [14:0] $end
$var wire 15 W out [14:0] $end
$scope begin genblk4 $end
$upscope $end
$upscope $end
$upscope $end
$scope module MFP_MAC_symmetric_par $end
$var wire 64 X Coeff [63:0] $end
$var wire 128 Y In1Arr [127:0] $end
$var wire 72 Z In1ArrFold [71:0] $end
$var wire 72 [ In1ArrFold_stage [71:0] $end
$var wire 15 \ acc_sum_rounded [14:0] $end
$var wire 1 ] clk $end
$var wire 1 ^ en $end
$var wire 1 _ extrasum_roundedBit $end
$scope module RoW $end
$var wire 1 ] clk $end
$var wire 1 ^ en $end
$var wire 72 ` in [71:0] $end
$var wire 72 a out [71:0] $end
$scope begin genblk1 $end
$upscope $end
$upscope $end
$scope module MACpH $end
$var wire 72 b In1Arr [71:0] $end
$var wire 64 c In2Arr [63:0] $end
$var wire 16 d acc_sum_rounded [15:0] $end
$var wire 1 ] clk $end
$var wire 1 ^ en $end
$var wire 128 e productArr_rounded [127:0] $end
$var wire 16 f productArr_roundedSum [15:0] $end
$var wire 128 g productArr_rounded_stage [127:0] $end
$scope module AMFP $end
$var wire 72 h In1Arr [71:0] $end
$var wire 64 i In2Arr [63:0] $end
$var wire 128 j OutArr [127:0] $end
$scope begin oparr[0] $end
$scope module m0 $end
$var wire 9 k In1 [8:0] $end
$var wire 8 l In2 [7:0] $end
$var wire 16 m Out [15:0] $end
$var wire 16 n Out_ [15:0] $end
$scope module roun $end
$var wire 16 o in [15:0] $end
$var wire 16 p out [15:0] $end
$scope begin genblk4 $end
$upscope $end
$upscope $end
$scope begin genblk2 $end
$var wire 9 q In1_s [8:0] $end
$var wire 8 r In2_s [7:0] $end
$var wire 16 s Out_s [15:0] $end
$upscope $end
$upscope $end
$upscope $end
$scope begin oparr[1] $end
$scope module m0 $end
$var wire 9 t In1 [8:0] $end
$var wire 8 u In2 [7:0] $end
$var wire 16 v Out [15:0] $end
$var wire 16 w Out_ [15:0] $end
$scope module roun $end
$var wire 16 x in [15:0] $end
$var wire 16 y out [15:0] $end
$scope begin genblk4 $end
$upscope $end
$upscope $end
$scope begin genblk2 $end
$var wire 9 z In1_s [8:0] $end
$var wire 8 { In2_s [7:0] $end
$var wire 16 | Out_s [15:0] $end
$upscope $end
$upscope $end
$upscope $end
$scope begin oparr[2] $end
$scope module m0 $end
$var wire 9 } In1 [8:0] $end
$var wire 8 ~ In2 [7:0] $end
$var wire 16 !" Out [15:0] $end
$var wire 16 "" Out_ [15:0] $end
$scope module roun $end
$var wire 16 #" in [15:0] $end
$var wire 16 $" out [15:0] $end
$scope begin genblk4 $end
$upscope $end
$upscope $end
$scope begin genblk2 $end
$var wire 9 %" In1_s [8:0] $end
$var wire 8 &" In2_s [7:0] $end
$var wire 16 '" Out_s [15:0] $end
$upscope $end
$upscope $end
$upscope $end
$scope begin oparr[3] $end
$scope module m0 $end
$var wire 9 (" In1 [8:0] $end
$var wire 8 )" In2 [7:0] $end
$var wire 16 *" Out [15:0] $end
$var wire 16 +" Out_ [15:0] $end
$scope module roun $end
$var wire 16 ," in [15:0] $end
$var wire 16 -" out [15:0] $end
$scope begin genblk4 $end
$upscope $end
$upscope $end
$scope begin genblk2 $end
$var wire 9 ." In1_s [8:0] $end
$var wire 8 /" In2_s [7:0] $end
$var wire 16 0" Out_s [15:0] $end
$upscope $end
$upscope $end
$upscope $end
$scope begin oparr[4] $end
$scope module m0 $end
$var wire 9 1" In1 [8:0] $end
$var wire 8 2" In2 [7:0] $end
$var wire 16 3" Out [15:0] $end
$var wire 16 4" Out_ [15:0] $end
$scope module roun $end
$var wire 16 5" in [15:0] $end
$var wire 16 6" out [15:0] $end
$scope begin genblk4 $end
$upscope $end
$upscope $end
$scope begin genblk2 $end
$var wire 9 7" In1_s [8:0] $end
$var wire 8 8" In2_s [7:0] $end
$var wire 16 9" Out_s [15:0] $end
$upscope $end
$upscope $end
$upscope $end
$scope begin oparr[5] $end
$scope module m0 $end
$var wire 9 :" In1 [8:0] $end
$var wire 8 ;" In2 [7:0] $end
$var wire 16 <" Out [15:0] $end
$var wire 16 =" Out_ [15:0] $end
$scope module roun $end
$var wire 16 >" in [15:0] $end
$var wire 16 ?" out [15:0] $end
$scope begin genblk4 $end
$upscope $end
$upscope $end
$scope begin genblk2 $end
$var wire 9 @" In1_s [8:0] $end
$var wire 8 A" In2_s [7:0] $end
$var wire 16 B" Out_s [15:0] $end
$upscope $end
$upscope $end
$upscope $end
$scope begin oparr[6] $end
$scope module m0 $end
$var wire 9 C" In1 [8:0] $end
$var wire 8 D" In2 [7:0] $end
$var wire 16 E" Out [15:0] $end
$var wire 16 F" Out_ [15:0] $end
$scope module roun $end
$var wire 16 G" in [15:0] $end
$var wire 16 H" out [15:0] $end
$scope begin genblk4 $end
$upscope $end
$upscope $end
$scope begin genblk2 $end
$var wire 9 I" In1_s [8:0] $end
$var wire 8 J" In2_s [7:0] $end
$var wire 16 K" Out_s [15:0] $end
$upscope $end
$upscope $end
$upscope $end
$scope begin oparr[7] $end
$scope module m0 $end
$var wire 9 L" In1 [8:0] $end
$var wire 8 M" In2 [7:0] $end
$var wire 16 N" Out [15:0] $end
$var wire 16 O" Out_ [15:0] $end
$scope module roun $end
$var wire 16 P" in [15:0] $end
$var wire 16 Q" out [15:0] $end
$scope begin genblk4 $end
$upscope $end
$upscope $end
$scope begin genblk2 $end
$var wire 9 R" In1_s [8:0] $end
$var wire 8 S" In2_s [7:0] $end
$var wire 16 T" Out_s [15:0] $end
$upscope $end
$upscope $end
$upscope $end
$upscope $end
$scope module RoW $end
$var wire 1 ] clk $end
$var wire 1 ^ en $end
$var wire 128 U" in [127:0] $end
$var wire 128 V" out [127:0] $end
$scope begin genblk1 $end
$upscope $end
$upscope $end
$scope module ATFP $end
$var wire 128 W" DIn [127:0] $end
$var wire 16 X" Sum [15:0] $end
$var wire 16 Y" Sum_ [15:0] $end
$var wire 1 ] clk $end
$var wire 1 ^ en $end
$var wire 16 Z" subLevelSum1 [15:0] $end
$var wire 16 [" subLevelSum2 [15:0] $end
$scope module aS $end
$var wire 16 \" In1 [15:0] $end
$var wire 16 ]" In2 [15:0] $end
$var wire 1 ^" IsSameSign $end
$var wire 1 _" IsSignChanged $end
$var wire 16 `" Out [15:0] $end
$var wire 16 a" TestAdd [15:0] $end
$scope begin genblk4 $end
$scope begin genblk5 $end
$upscope $end
$upscope $end
$upscope $end
$scope module RoW $end
$var wire 1 ] clk $end
$var wire 1 ^ en $end
$var wire 16 b" in [15:0] $end
$var wire 16 c" out [15:0] $end
$scope begin genblk1 $end
$upscope $end
$upscope $end
$scope begin genblk2 $end
$scope module ATI1 $end
$var wire 64 d" DIn [63:0] $end
$var wire 16 e" Sum [15:0] $end
$var wire 16 f" Sum_ [15:0] $end
$var wire 1 ] clk $end
$var wire 1 ^ en $end
$var wire 16 g" subLevelSum1 [15:0] $end
$var wire 16 h" subLevelSum2 [15:0] $end
$scope module aS $end
$var wire 16 i" In1 [15:0] $end
$var wire 16 j" In2 [15:0] $end
$var wire 1 k" IsSameSign $end
$var wire 1 l" IsSignChanged $end
$var wire 16 m" Out [15:0] $end
$var wire 16 n" TestAdd [15:0] $end
$scope begin genblk4 $end
$scope begin genblk5 $end
$upscope $end
$upscope $end
$upscope $end
$scope module RoW $end
$var wire 1 ] clk $end
$var wire 1 ^ en $end
$var wire 16 o" in [15:0] $end
$var wire 16 p" out [15:0] $end
$scope begin genblk1 $end
$upscope $end
$upscope $end
$scope begin genblk2 $end
$scope module ATI1 $end
$var wire 32 q" DIn [31:0] $end
$var wire 16 r" Sum [15:0] $end
$var wire 16 s" Sum_ [15:0] $end
$var wire 1 ] clk $end
$var wire 1 ^ en $end
$var wire 16 t" subLevelSum1 [15:0] $end
$var wire 16 u" subLevelSum2 [15:0] $end
$scope module aS $end
$var wire 16 v" In1 [15:0] $end
$var wire 16 w" In2 [15:0] $end
$var wire 1 x" IsSameSign $end
$var wire 1 y" IsSignChanged $end
$var wire 16 z" Out [15:0] $end
$var wire 16 {" TestAdd [15:0] $end
$scope begin genblk4 $end
$scope begin genblk5 $end
$upscope $end
$upscope $end
$upscope $end
$scope module RoW $end
$var wire 1 ] clk $end
$var wire 1 ^ en $end
$var wire 16 |" in [15:0] $end
$var wire 16 }" out [15:0] $end
$scope begin genblk1 $end
$upscope $end
$upscope $end
$scope begin genblk1 $end
$upscope $end
$scope begin genblk3 $end
$upscope $end
$upscope $end
$upscope $end
$scope begin genblk4 $end
$scope module ATI1 $end
$var wire 32 ~" DIn [31:0] $end
$var wire 16 !# Sum [15:0] $end
$var wire 16 "# Sum_ [15:0] $end
$var wire 1 ] clk $end
$var wire 1 ^ en $end
$var wire 16 ## subLevelSum1 [15:0] $end
$var wire 16 $# subLevelSum2 [15:0] $end
$scope module aS $end
$var wire 16 %# In1 [15:0] $end
$var wire 16 &# In2 [15:0] $end
$var wire 1 '# IsSameSign $end
$var wire 1 (# IsSignChanged $end
$var wire 16 )# Out [15:0] $end
$var wire 16 *# TestAdd [15:0] $end
$scope begin genblk4 $end
$scope begin genblk5 $end
$upscope $end
$upscope $end
$upscope $end
$scope module RoW $end
$var wire 1 ] clk $end
$var wire 1 ^ en $end
$var wire 16 +# in [15:0] $end
$var wire 16 ,# out [15:0] $end
$scope begin genblk1 $end
$upscope $end
$upscope $end
$scope begin genblk1 $end
$upscope $end
$scope begin genblk3 $end
$upscope $end
$upscope $end
$upscope $end
$upscope $end
$upscope $end
$scope begin genblk4 $end
$scope module ATI1 $end
$var wire 64 -# DIn [63:0] $end
$var wire 16 .# Sum [15:0] $end
$var wire 16 /# Sum_ [15:0] $end
$var wire 1 ] clk $end
$var wire 1 ^ en $end
$var wire 16 0# subLevelSum1 [15:0] $end
$var wire 16 1# subLevelSum2 [15:0] $end
$scope module aS $end
$var wire 16 2# In1 [15:0] $end
$var wire 16 3# In2 [15:0] $end
$var wire 1 4# IsSameSign $end
$var wire 1 5# IsSignChanged $end
$var wire 16 6# Out [15:0] $end
$var wire 16 7# TestAdd [15:0] $end
$scope begin genblk4 $end
$scope begin genblk5 $end
$upscope $end
$upscope $end
$upscope $end
$scope module RoW $end
$var wire 1 ] clk $end
$var wire 1 ^ en $end
$var wire 16 8# in [15:0] $end
$var wire 16 9# out [15:0] $end
$scope begin genblk1 $end
$upscope $end
$upscope $end
$scope begin genblk2 $end
$scope module ATI1 $end
$var wire 32 :# DIn [31:0] $end
$var wire 16 ;# Sum [15:0] $end
$var wire 16 <# Sum_ [15:0] $end
$var wire 1 ] clk $end
$var wire 1 ^ en $end
$var wire 16 =# subLevelSum1 [15:0] $end
$var wire 16 ># subLevelSum2 [15:0] $end
$scope module aS $end
$var wire 16 ?# In1 [15:0] $end
$var wire 16 @# In2 [15:0] $end
$var wire 1 A# IsSameSign $end
$var wire 1 B# IsSignChanged $end
$var wire 16 C# Out [15:0] $end
$var wire 16 D# TestAdd [15:0] $end
$scope begin genblk4 $end
$scope begin genblk5 $end
$upscope $end
$upscope $end
$upscope $end
$scope module RoW $end
$var wire 1 ] clk $end
$var wire 1 ^ en $end
$var wire 16 E# in [15:0] $end
$var wire 16 F# out [15:0] $end
$scope begin genblk1 $end
$upscope $end
$upscope $end
$scope begin genblk1 $end
$upscope $end
$scope begin genblk3 $end
$upscope $end
$upscope $end
$upscope $end
$scope begin genblk4 $end
$scope module ATI1 $end
$var wire 32 G# DIn [31:0] $end
$var wire 16 H# Sum [15:0] $end
$var wire 16 I# Sum_ [15:0] $end
$var wire 1 ] clk $end
$var wire 1 ^ en $end
$var wire 16 J# subLevelSum1 [15:0] $end
$var wire 16 K# subLevelSum2 [15:0] $end
$scope module aS $end
$var wire 16 L# In1 [15:0] $end
$var wire 16 M# In2 [15:0] $end
$var wire 1 N# IsSameSign $end
$var wire 1 O# IsSignChanged $end
$var wire 16 P# Out [15:0] $end
$var wire 16 Q# TestAdd [15:0] $end
$scope begin genblk4 $end
$scope begin genblk5 $end
$upscope $end
$upscope $end
$upscope $end
$scope module RoW $end
$var wire 1 ] clk $end
$var wire 1 ^ en $end
$var wire 16 R# in [15:0] $end
$var wire 16 S# out [15:0] $end
$scope begin genblk1 $end
$upscope $end
$upscope $end
$scope begin genblk1 $end
$upscope $end
$scope begin genblk3 $end
$upscope $end
$upscope $end
$upscope $end
$upscope $end
$upscope $end
$upscope $end
$scope module round_acc $end
$var wire 16 T# in [15:0] $end
$var wire 16 U# out [15:0] $end
$scope begin genblk4 $end
$upscope $end
$upscope $end
$upscope $end
$scope begin foldLoop[0] $end
$scope module aS $end
$var wire 8 V# In1 [7:0] $end
$var wire 8 W# In2 [7:0] $end
$var wire 1 X# IsSameSign $end
$var wire 1 Y# IsSignChanged $end
$var wire 9 Z# Out [8:0] $end
$var wire 9 [# TestAdd [8:0] $end
$scope begin genblk4 $end
$scope begin genblk5 $end
$upscope $end
$upscope $end
$upscope $end
$upscope $end
$scope begin foldLoop[1] $end
$scope module aS $end
$var wire 8 \# In1 [7:0] $end
$var wire 8 ]# In2 [7:0] $end
$var wire 1 ^# IsSameSign $end
$var wire 1 _# IsSignChanged $end
$var wire 9 `# Out [8:0] $end
$var wire 9 a# TestAdd [8:0] $end
$scope begin genblk4 $end
$scope begin genblk5 $end
$upscope $end
$upscope $end
$upscope $end
$upscope $end
$scope begin foldLoop[2] $end
$scope module aS $end
$var wire 8 b# In1 [7:0] $end
$var wire 8 c# In2 [7:0] $end
$var wire 1 d# IsSameSign $end
$var wire 1 e# IsSignChanged $end
$var wire 9 f# Out [8:0] $end
$var wire 9 g# TestAdd [8:0] $end
$scope begin genblk4 $end
$scope begin genblk5 $end
$upscope $end
$upscope $end
$upscope $end
$upscope $end
$scope begin foldLoop[3] $end
$scope module aS $end
$var wire 8 h# In1 [7:0] $end
$var wire 8 i# In2 [7:0] $end
$var wire 1 j# IsSameSign $end
$var wire 1 k# IsSignChanged $end
$var wire 9 l# Out [8:0] $end
$var wire 9 m# TestAdd [8:0] $end
$scope begin genblk4 $end
$scope begin genblk5 $end
$upscope $end
$upscope $end
$upscope $end
$upscope $end
$scope begin foldLoop[4] $end
$scope module aS $end
$var wire 8 n# In1 [7:0] $end
$var wire 8 o# In2 [7:0] $end
$var wire 1 p# IsSameSign $end
$var wire 1 q# IsSignChanged $end
$var wire 9 r# Out [8:0] $end
$var wire 9 s# TestAdd [8:0] $end
$scope begin genblk4 $end
$scope begin genblk5 $end
$upscope $end
$upscope $end
$upscope $end
$upscope $end
$scope begin foldLoop[5] $end
$scope module aS $end
$var wire 8 t# In1 [7:0] $end
$var wire 8 u# In2 [7:0] $end
$var wire 1 v# IsSameSign $end
$var wire 1 w# IsSignChanged $end
$var wire 9 x# Out [8:0] $end
$var wire 9 y# TestAdd [8:0] $end
$scope begin genblk4 $end
$scope begin genblk5 $end
$upscope $end
$upscope $end
$upscope $end
$upscope $end
$scope begin foldLoop[6] $end
$scope module aS $end
$var wire 8 z# In1 [7:0] $end
$var wire 8 {# In2 [7:0] $end
$var wire 1 |# IsSameSign $end
$var wire 1 }# IsSignChanged $end
$var wire 9 ~# Out [8:0] $end
$var wire 9 !$ TestAdd [8:0] $end
$scope begin genblk4 $end
$scope begin genblk5 $end
$upscope $end
$upscope $end
$upscope $end
$upscope $end
$scope begin foldLoop[7] $end
$scope module aS $end
$var wire 8 "$ In1 [7:0] $end
$var wire 8 #$ In2 [7:0] $end
$var wire 1 $$ IsSameSign $end
$var wire 1 %$ IsSignChanged $end
$var wire 9 &$ Out [8:0] $end
$var wire 9 '$ TestAdd [8:0] $end
$scope begin genblk4 $end
$scope begin genblk5 $end
$upscope $end
$upscope $end
$upscope $end
$upscope $end
$upscope $end
$scope module TB1 $end
$var wire 1 ($ ZZZ $end
$var wire 15 )$ satOut [14:0] $end
$var reg 1 *$ clk_ $end
$var integer 32 +$ counter [31:0] $end
$scope module Mul $end
$var wire 8 ,$ In1 [7:0] $end
$var wire 8 -$ In2 [7:0] $end
$var wire 8 .$ Out [7:0] $end
$var wire 15 /$ Out_ [14:0] $end
$scope module roun $end
$var wire 15 0$ in [14:0] $end
$var wire 8 1$ out [7:0] $end
$scope begin genblk2 $end
$upscope $end
$upscope $end
$scope begin genblk2 $end
$var wire 8 2$ In1_s [7:0] $end
$var wire 8 3$ In2_s [7:0] $end
$var wire 15 4$ Out_s [14:0] $end
$upscope $end
$upscope $end
$scope module Muluns $end
$var wire 8 5$ In1 [7:0] $end
$var wire 8 6$ In2 [7:0] $end
$var wire 8 7$ Out [7:0] $end
$var wire 16 8$ Out_ [15:0] $end
$scope module roun $end
$var wire 16 9$ in [15:0] $end
$var wire 8 :$ out [7:0] $end
$scope begin genblk2 $end
$upscope $end
$upscope $end
$scope begin genblk1 $end
$upscope $end
$upscope $end
$scope module Adder $end
$var wire 8 ;$ In1 [7:0] $end
$var wire 8 <$ In2 [7:0] $end
$var wire 1 =$ IsSameSign $end
$var wire 1 >$ IsSignChanged $end
$var wire 8 ?$ Out [7:0] $end
$var wire 8 @$ TestAdd [7:0] $end
$scope begin genblk4 $end
$scope begin genblk5 $end
$upscope $end
$upscope $end
$upscope $end
$scope module AdderuS $end
$var wire 8 A$ In1 [7:0] $end
$var wire 8 B$ In2 [7:0] $end
$var wire 1 C$ IsSameSign $end
$var wire 1 D$ IsSignChanged $end
$var wire 8 E$ Out [7:0] $end
$var wire 8 F$ TestAdd [7:0] $end
$scope begin genblk1 $end
$var wire 8 G$ In2_ [7:0] $end
$scope begin genblk2 $end
$upscope $end
$upscope $end
$upscope $end
$scope module sat $end
$var wire 15 H$ dataIn [14:0] $end
$var wire 15 I$ dataOut [14:0] $end
$var wire 1 J$ sign $end
$scope begin genblk2 $end
$var wire 15 K$ Out [14:0] $end
$var wire 3 L$ Out_ [2:0] $end
$upscope $end
$upscope $end
$upscope $end
$enddefinitions $end
#0
$dumpvars
b100 L$
b111111111111100 K$
1J$
b111111111111100 I$
b111111110011100 H$
b1 G$
b0 F$
b0 E$
1D$
0C$
b1 B$
b11111111 A$
b0 @$
b0 ?$
0>$
0=$
b10000001 <$
b1111111 ;$
b1000000 :$
b100000000000000 9$
b100000000000000 8$
b1000000 7$
b10000000 6$
b10000000 5$
b100000000000000 4$
b10000000 3$
b10000000 2$
b10000000 1$
b100000000000000 0$
b100000000000000 /$
b10000000 .$
b10000000 -$
b10000000 ,$
b11111111111111111111111110011100 +$
0*$
b111111111111100 )$
0($
bx '$
bx &$
x%$
x$$
bz #$
bz "$
bx !$
bx ~#
x}#
x|#
bz {#
bz z#
bx y#
bx x#
xw#
xv#
bz u#
bz t#
bx s#
bx r#
xq#
xp#
bz o#
bz n#
bx m#
bx l#
xk#
xj#
bz i#
bz h#
bx g#
bx f#
xe#
xd#
bz c#
bz b#
bx a#
bx `#
x_#
x^#
bz ]#
bz \#
bx [#
bx Z#
xY#
xX#
bz W#
bz V#
bx U#
bx T#
bx S#
bx R#
bx Q#
bx P#
xO#
xN#
bx M#
bx L#
bx K#
bx J#
bx I#
bx H#
bx G#
bx F#
bx E#
bx D#
bx C#
xB#
xA#
bx @#
bx ?#
bx >#
bx =#
bx <#
bx ;#
bx :#
bx 9#
bx 8#
bx 7#
bx 6#
x5#
x4#
bx 3#
bx 2#
bx 1#
bx 0#
bx /#
bx .#
bx -#
bx ,#
bx +#
bx *#
bx )#
x(#
x'#
bx &#
bx %#
bx $#
bx ##
bx "#
bx !#
bx ~"
bx }"
bx |"
bx {"
bx z"
xy"
xx"
bx w"
bx v"
bx u"
bx t"
bx s"
bx r"
bx q"
bx p"
bx o"
bx n"
bx m"
xl"
xk"
bx j"
bx i"
bx h"
bx g"
bx f"
bx e"
bx d"
bx c"
bx b"
bx a"
bx `"
x_"
x^"
bx ]"
bx \"
bx ["
bx Z"
bx Y"
bx X"
bx W"
bx V"
bx U"
bx T"
bz S"
bx R"
bx Q"
bx P"
bx O"
bx N"
bz M"
bx L"
bx K"
bz J"
bx I"
bx H"
bx G"
bx F"
bx E"
bz D"
bx C"
bx B"
bz A"
bx @"
bx ?"
bx >"
bx ="
bx <"
bz ;"
bx :"
bx 9"
bz 8"
bx 7"
bx 6"
bx 5"
bx 4"
bx 3"
bz 2"
bx 1"
bx 0"
bz /"
bx ."
bx -"
bx ,"
bx +"
bx *"
bz )"
bx ("
bx '"
bz &"
bx %"
bx $"
bx #"
bx ""
bx !"
bz ~
bx }
bx |
bz {
bx z
bx y
bx x
bx w
bx v
bz u
bx t
bx s
bz r
bx q
bx p
bx o
bx n
bx m
bz l
bx k
bx j
bz i
bx h
bx g
bx f
bx e
bx d
bz c
bx b
bx a
bx `
x_
z^
z]
bx \
bx [
bx Z
bz Y
bz X
bx W
bx V
bx U
bx T
xS
xR
bx Q
bx P
bx O
bx N
bx M
bz L
bz K
bx J
bx I
bx H
bx G
bz F
bz E
bx D
bx C
bx B
zA
z@
bx ?
bx >
bz =
bz <
bx ;
bx :
x9
x8
bx 7
bx 6
bx 5
bx 4
x3
x2
bx 1
bx 0
bx /
bx .
x-
x,
bx +
bx *
bx )
bx (
x'
x&
bx %
bx $
bx #
bz "
bz !
$end
#2
b111111110011101 H$
b11111111111111111111111110011101 +$
1*$
#4
0*$
#6
b111111110011110 H$
b11111111111111111111111110011110 +$
1*$
#8
0*$
#10
b111111110011111 H$
b11111111111111111111111110011111 +$
1*$
#12
0*$
#14
b111111110100000 H$
b11111111111111111111111110100000 +$
1*$
#16
0*$
#18
b111111110100001 H$
b11111111111111111111111110100001 +$
1*$
#20
0*$
#22
b111111110100010 H$
b11111111111111111111111110100010 +$
1*$
#24
0*$
#26
b111111110100011 H$
b11111111111111111111111110100011 +$
1*$
#28
0*$
#30
b111111110100100 H$
b11111111111111111111111110100100 +$
1*$
#32
0*$
#34
b111111110100101 H$
b11111111111111111111111110100101 +$
1*$
#36
0*$
#38
b111111110100110 H$
b11111111111111111111111110100110 +$
1*$
#40
0*$
#42
b111111110100111 H$
b11111111111111111111111110100111 +$
1*$
#44
0*$
#46
b111111110101000 H$
b11111111111111111111111110101000 +$
1*$
#48
0*$
#50
b111111110101001 H$
b11111111111111111111111110101001 +$
1*$
#52
0*$
#54
b111111110101010 H$
b11111111111111111111111110101010 +$
1*$
#56
0*$
#58
b111111110101011 H$
b11111111111111111111111110101011 +$
1*$
#60
0*$
#62
b111111110101100 H$
b11111111111111111111111110101100 +$
1*$
#64
0*$
#66
b111111110101101 H$
b11111111111111111111111110101101 +$
1*$
#68
0*$
#70
b111111110101110 H$
b11111111111111111111111110101110 +$
1*$
#72
0*$
#74
b111111110101111 H$
b11111111111111111111111110101111 +$
1*$
#76
0*$
#78
b111111110110000 H$
b11111111111111111111111110110000 +$
1*$
#80
0*$
#82
b111111110110001 H$
b11111111111111111111111110110001 +$
1*$
#84
0*$
#86
b111111110110010 H$
b11111111111111111111111110110010 +$
1*$
#88
0*$
#90
b111111110110011 H$
b11111111111111111111111110110011 +$
1*$
#92
0*$
#94
b111111110110100 H$
b11111111111111111111111110110100 +$
1*$
#96
0*$
#98
b111111110110101 H$
b11111111111111111111111110110101 +$
1*$
#100
0*$
#102
b111111110110110 H$
b11111111111111111111111110110110 +$
1*$
#104
0*$
#106
b111111110110111 H$
b11111111111111111111111110110111 +$
1*$
#108
0*$
#110
b111111110111000 H$
b11111111111111111111111110111000 +$
1*$
#112
0*$
#114
b111111110111001 H$
b11111111111111111111111110111001 +$
1*$
#116
0*$
#118
b111111110111010 H$
b11111111111111111111111110111010 +$
1*$
#120
0*$
#122
b111111110111011 H$
b11111111111111111111111110111011 +$
1*$
#124
0*$
#126
b111111110111100 H$
b11111111111111111111111110111100 +$
1*$
#128
0*$
#130
b111111110111101 H$
b11111111111111111111111110111101 +$
1*$
#132
0*$
#134
b111111110111110 H$
b11111111111111111111111110111110 +$
1*$
#136
0*$
#138
b111111110111111 H$
b11111111111111111111111110111111 +$
1*$
#140
0*$
#142
b111111111000000 H$
b11111111111111111111111111000000 +$
1*$
#144
0*$
#146
b111111111000001 H$
b11111111111111111111111111000001 +$
1*$
#148
0*$
#150
b111111111000010 H$
b11111111111111111111111111000010 +$
1*$
#152
0*$
#154
b111111111000011 H$
b11111111111111111111111111000011 +$
1*$
#156
0*$
#158
b111111111000100 H$
b11111111111111111111111111000100 +$
1*$
#160
0*$
#162
b111111111000101 H$
b11111111111111111111111111000101 +$
1*$
#164
0*$
#166
b111111111000110 H$
b11111111111111111111111111000110 +$
1*$
#168
0*$
#170
b111111111000111 H$
b11111111111111111111111111000111 +$
1*$
#172
0*$
#174
b111111111001000 H$
b11111111111111111111111111001000 +$
1*$
#176
0*$
#178
b111111111001001 H$
b11111111111111111111111111001001 +$
1*$
#180
0*$
#182
b111111111001010 H$
b11111111111111111111111111001010 +$
1*$
#184
0*$
#186
b111111111001011 H$
b11111111111111111111111111001011 +$
1*$
#188
0*$
#190
b111111111001100 H$
b11111111111111111111111111001100 +$
1*$
#192
0*$
#194
b111111111001101 H$
b11111111111111111111111111001101 +$
1*$
#196
0*$
#198
b111111111001110 H$
b11111111111111111111111111001110 +$
1*$
#200
0*$
#202
b111111111001111 H$
b11111111111111111111111111001111 +$
1*$
#204
0*$
#206
b111111111010000 H$
b11111111111111111111111111010000 +$
1*$
#208
0*$
#210
b111111111010001 H$
b11111111111111111111111111010001 +$
1*$
#212
0*$
#214
b111111111010010 H$
b11111111111111111111111111010010 +$
1*$
#216
0*$
#218
b111111111010011 H$
b11111111111111111111111111010011 +$
1*$
#220
0*$
#222
b111111111010100 H$
b11111111111111111111111111010100 +$
1*$
#224
0*$
#226
b111111111010101 H$
b11111111111111111111111111010101 +$
1*$
#228
0*$
#230
b111111111010110 H$
b11111111111111111111111111010110 +$
1*$
#232
0*$
#234
b111111111010111 H$
b11111111111111111111111111010111 +$
1*$
#236
0*$
#238
b111111111011000 H$
b11111111111111111111111111011000 +$
1*$
#240
0*$
#242
b111111111011001 H$
b11111111111111111111111111011001 +$
1*$
#244
0*$
#246
b111111111011010 H$
b11111111111111111111111111011010 +$
1*$
#248
0*$
#250
b111111111011011 H$
b11111111111111111111111111011011 +$
1*$
#252
0*$
#254
b111111111011100 H$
b11111111111111111111111111011100 +$
1*$
#256
0*$
#258
b111111111011101 H$
b11111111111111111111111111011101 +$
1*$
#260
0*$
#262
b111111111011110 H$
b11111111111111111111111111011110 +$
1*$
#264
0*$
#266
b111111111011111 H$
b11111111111111111111111111011111 +$
1*$
#268
0*$
#270
b111111111100000 H$
b11111111111111111111111111100000 +$
1*$
#272
0*$
