For Simulate/MFixPoint_ToolBox/wave.vcd
$date
	Wed Apr 15 00:09:51 2015
$end
$version
	Icarus Verilog
$end
$timescale
	1s
$end
$scope module MFP_Abs $end
$var wire 8 ! dataIn [7:0] $end
$var wire 4 " dataOut [3:0] $end
$upscope $end
$scope module MFP_Adder_Arr $end
$var wire 64 # In1Arr [63:0] $end
$var wire 64 $ In2Arr [63:0] $end
$var wire 64 % OutArr [63:0] $end
$scope begin oparr[0] $end
$scope module a0 $end
$var wire 16 & In1 [15:0] $end
$var wire 16 ' In2 [15:0] $end
$var wire 1 ( IsSameSign $end
$var wire 1 ) IsSignChanged $end
$var wire 16 * Out [15:0] $end
$var wire 16 + TestAdd [15:0] $end
$scope begin genblk4 $end
$scope begin genblk5 $end
$upscope $end
$upscope $end
$upscope $end
$upscope $end
$scope begin oparr[1] $end
$scope module a0 $end
$var wire 16 , In1 [15:0] $end
$var wire 16 - In2 [15:0] $end
$var wire 1 . IsSameSign $end
$var wire 1 / IsSignChanged $end
$var wire 16 0 Out [15:0] $end
$var wire 16 1 TestAdd [15:0] $end
$scope begin genblk4 $end
$scope begin genblk5 $end
$upscope $end
$upscope $end
$upscope $end
$upscope $end
$scope begin oparr[2] $end
$scope module a0 $end
$var wire 16 2 In1 [15:0] $end
$var wire 16 3 In2 [15:0] $end
$var wire 1 4 IsSameSign $end
$var wire 1 5 IsSignChanged $end
$var wire 16 6 Out [15:0] $end
$var wire 16 7 TestAdd [15:0] $end
$scope begin genblk4 $end
$scope begin genblk5 $end
$upscope $end
$upscope $end
$upscope $end
$upscope $end
$scope begin oparr[3] $end
$scope module a0 $end
$var wire 16 8 In1 [15:0] $end
$var wire 16 9 In2 [15:0] $end
$var wire 1 : IsSameSign $end
$var wire 1 ; IsSignChanged $end
$var wire 16 < Out [15:0] $end
$var wire 16 = TestAdd [15:0] $end
$scope begin genblk4 $end
$scope begin genblk5 $end
$upscope $end
$upscope $end
$upscope $end
$upscope $end
$upscope $end
$scope module MFP_MAC_Seq $end
$var wire 8 > In1 [7:0] $end
$var wire 8 ? In2 [7:0] $end
$var wire 15 @ acc_sum_pre [14:0] $end
$var wire 15 A acc_sum_rounded [14:0] $end
$var wire 1 B aclr $end
$var wire 1 C clock $end
$var wire 15 D product [14:0] $end
$var wire 15 E product_rounded [14:0] $end
$var reg 15 F acc_sum [14:0] $end
$scope module m1 $end
$var wire 8 G In1 [7:0] $end
$var wire 8 H In2 [7:0] $end
$var wire 15 I Out [14:0] $end
$var wire 15 J Out_ [14:0] $end
$scope module roun $end
$var wire 15 K in [14:0] $end
$var wire 15 L out [14:0] $end
$scope begin genblk4 $end
$upscope $end
$upscope $end
$scope begin genblk2 $end
$var wire 8 M In1_s [7:0] $end
$var wire 8 N In2_s [7:0] $end
$var wire 15 O Out_s [14:0] $end
$upscope $end
$upscope $end
$scope module round_prod $end
$var wire 15 P in [14:0] $end
$var wire 15 Q out [14:0] $end
$scope begin genblk4 $end
$upscope $end
$upscope $end
$scope module aS $end
$var wire 15 R In1 [14:0] $end
$var wire 15 S In2 [14:0] $end
$var wire 1 T IsSameSign $end
$var wire 1 U IsSignChanged $end
$var wire 15 V Out [14:0] $end
$var wire 15 W TestAdd [14:0] $end
$scope begin genblk4 $end
$scope begin genblk5 $end
$upscope $end
$upscope $end
$upscope $end
$scope module round_acc $end
$var wire 15 X in [14:0] $end
$var wire 15 Y out [14:0] $end
$scope begin genblk4 $end
$upscope $end
$upscope $end
$upscope $end
$scope module MFP_MAC_symmetric_par $end
$var wire 64 Z Coeff [63:0] $end
$var wire 128 [ In1Arr [127:0] $end
$var wire 72 \ In1ArrFold [71:0] $end
$var wire 72 ] In1ArrFold_stage [71:0] $end
$var wire 15 ^ acc_sum_rounded [14:0] $end
$var wire 1 _ clk $end
$var wire 1 ` en $end
$var wire 1 a extrasum_roundedBit $end
$scope module RoW $end
$var wire 1 _ clk $end
$var wire 1 ` en $end
$var wire 72 b in [71:0] $end
$var wire 72 c out [71:0] $end
$scope begin genblk1 $end
$upscope $end
$upscope $end
$scope module MACpH $end
$var wire 72 d In1Arr [71:0] $end
$var wire 64 e In2Arr [63:0] $end
$var wire 16 f acc_sum_rounded [15:0] $end
$var wire 1 _ clk $end
$var wire 1 ` en $end
$var wire 128 g productArr_rounded [127:0] $end
$var wire 16 h productArr_roundedSum [15:0] $end
$var wire 128 i productArr_rounded_stage [127:0] $end
$scope module AMFP $end
$var wire 72 j In1Arr [71:0] $end
$var wire 64 k In2Arr [63:0] $end
$var wire 128 l OutArr [127:0] $end
$scope begin oparr[0] $end
$scope module m0 $end
$var wire 9 m In1 [8:0] $end
$var wire 8 n In2 [7:0] $end
$var wire 16 o Out [15:0] $end
$var wire 16 p Out_ [15:0] $end
$scope module roun $end
$var wire 16 q in [15:0] $end
$var wire 16 r out [15:0] $end
$scope begin genblk4 $end
$upscope $end
$upscope $end
$scope begin genblk2 $end
$var wire 9 s In1_s [8:0] $end
$var wire 8 t In2_s [7:0] $end
$var wire 16 u Out_s [15:0] $end
$upscope $end
$upscope $end
$upscope $end
$scope begin oparr[1] $end
$scope module m0 $end
$var wire 9 v In1 [8:0] $end
$var wire 8 w In2 [7:0] $end
$var wire 16 x Out [15:0] $end
$var wire 16 y Out_ [15:0] $end
$scope module roun $end
$var wire 16 z in [15:0] $end
$var wire 16 { out [15:0] $end
$scope begin genblk4 $end
$upscope $end
$upscope $end
$scope begin genblk2 $end
$var wire 9 | In1_s [8:0] $end
$var wire 8 } In2_s [7:0] $end
$var wire 16 ~ Out_s [15:0] $end
$upscope $end
$upscope $end
$upscope $end
$scope begin oparr[2] $end
$scope module m0 $end
$var wire 9 !" In1 [8:0] $end
$var wire 8 "" In2 [7:0] $end
$var wire 16 #" Out [15:0] $end
$var wire 16 $" Out_ [15:0] $end
$scope module roun $end
$var wire 16 %" in [15:0] $end
$var wire 16 &" out [15:0] $end
$scope begin genblk4 $end
$upscope $end
$upscope $end
$scope begin genblk2 $end
$var wire 9 '" In1_s [8:0] $end
$var wire 8 (" In2_s [7:0] $end
$var wire 16 )" Out_s [15:0] $end
$upscope $end
$upscope $end
$upscope $end
$scope begin oparr[3] $end
$scope module m0 $end
$var wire 9 *" In1 [8:0] $end
$var wire 8 +" In2 [7:0] $end
$var wire 16 ," Out [15:0] $end
$var wire 16 -" Out_ [15:0] $end
$scope module roun $end
$var wire 16 ." in [15:0] $end
$var wire 16 /" out [15:0] $end
$scope begin genblk4 $end
$upscope $end
$upscope $end
$scope begin genblk2 $end
$var wire 9 0" In1_s [8:0] $end
$var wire 8 1" In2_s [7:0] $end
$var wire 16 2" Out_s [15:0] $end
$upscope $end
$upscope $end
$upscope $end
$scope begin oparr[4] $end
$scope module m0 $end
$var wire 9 3" In1 [8:0] $end
$var wire 8 4" In2 [7:0] $end
$var wire 16 5" Out [15:0] $end
$var wire 16 6" Out_ [15:0] $end
$scope module roun $end
$var wire 16 7" in [15:0] $end
$var wire 16 8" out [15:0] $end
$scope begin genblk4 $end
$upscope $end
$upscope $end
$scope begin genblk2 $end
$var wire 9 9" In1_s [8:0] $end
$var wire 8 :" In2_s [7:0] $end
$var wire 16 ;" Out_s [15:0] $end
$upscope $end
$upscope $end
$upscope $end
$scope begin oparr[5] $end
$scope module m0 $end
$var wire 9 <" In1 [8:0] $end
$var wire 8 =" In2 [7:0] $end
$var wire 16 >" Out [15:0] $end
$var wire 16 ?" Out_ [15:0] $end
$scope module roun $end
$var wire 16 @" in [15:0] $end
$var wire 16 A" out [15:0] $end
$scope begin genblk4 $end
$upscope $end
$upscope $end
$scope begin genblk2 $end
$var wire 9 B" In1_s [8:0] $end
$var wire 8 C" In2_s [7:0] $end
$var wire 16 D" Out_s [15:0] $end
$upscope $end
$upscope $end
$upscope $end
$scope begin oparr[6] $end
$scope module m0 $end
$var wire 9 E" In1 [8:0] $end
$var wire 8 F" In2 [7:0] $end
$var wire 16 G" Out [15:0] $end
$var wire 16 H" Out_ [15:0] $end
$scope module roun $end
$var wire 16 I" in [15:0] $end
$var wire 16 J" out [15:0] $end
$scope begin genblk4 $end
$upscope $end
$upscope $end
$scope begin genblk2 $end
$var wire 9 K" In1_s [8:0] $end
$var wire 8 L" In2_s [7:0] $end
$var wire 16 M" Out_s [15:0] $end
$upscope $end
$upscope $end
$upscope $end
$scope begin oparr[7] $end
$scope module m0 $end
$var wire 9 N" In1 [8:0] $end
$var wire 8 O" In2 [7:0] $end
$var wire 16 P" Out [15:0] $end
$var wire 16 Q" Out_ [15:0] $end
$scope module roun $end
$var wire 16 R" in [15:0] $end
$var wire 16 S" out [15:0] $end
$scope begin genblk4 $end
$upscope $end
$upscope $end
$scope begin genblk2 $end
$var wire 9 T" In1_s [8:0] $end
$var wire 8 U" In2_s [7:0] $end
$var wire 16 V" Out_s [15:0] $end
$upscope $end
$upscope $end
$upscope $end
$upscope $end
$scope module RoW $end
$var wire 1 _ clk $end
$var wire 1 ` en $end
$var wire 128 W" in [127:0] $end
$var wire 128 X" out [127:0] $end
$scope begin genblk1 $end
$upscope $end
$upscope $end
$scope module ATFP $end
$var wire 128 Y" DIn [127:0] $end
$var wire 16 Z" Sum [15:0] $end
$var wire 16 [" Sum_ [15:0] $end
$var wire 1 _ clk $end
$var wire 1 ` en $end
$var wire 16 \" subLevelSum1 [15:0] $end
$var wire 16 ]" subLevelSum2 [15:0] $end
$scope module aS $end
$var wire 16 ^" In1 [15:0] $end
$var wire 16 _" In2 [15:0] $end
$var wire 1 `" IsSameSign $end
$var wire 1 a" IsSignChanged $end
$var wire 16 b" Out [15:0] $end
$var wire 16 c" TestAdd [15:0] $end
$scope begin genblk4 $end
$scope begin genblk5 $end
$upscope $end
$upscope $end
$upscope $end
$scope module RoW $end
$var wire 1 _ clk $end
$var wire 1 ` en $end
$var wire 16 d" in [15:0] $end
$var wire 16 e" out [15:0] $end
$scope begin genblk1 $end
$upscope $end
$upscope $end
$scope begin genblk2 $end
$scope module ATI1 $end
$var wire 64 f" DIn [63:0] $end
$var wire 16 g" Sum [15:0] $end
$var wire 16 h" Sum_ [15:0] $end
$var wire 1 _ clk $end
$var wire 1 ` en $end
$var wire 16 i" subLevelSum1 [15:0] $end
$var wire 16 j" subLevelSum2 [15:0] $end
$scope module aS $end
$var wire 16 k" In1 [15:0] $end
$var wire 16 l" In2 [15:0] $end
$var wire 1 m" IsSameSign $end
$var wire 1 n" IsSignChanged $end
$var wire 16 o" Out [15:0] $end
$var wire 16 p" TestAdd [15:0] $end
$scope begin genblk4 $end
$scope begin genblk5 $end
$upscope $end
$upscope $end
$upscope $end
$scope module RoW $end
$var wire 1 _ clk $end
$var wire 1 ` en $end
$var wire 16 q" in [15:0] $end
$var wire 16 r" out [15:0] $end
$scope begin genblk1 $end
$upscope $end
$upscope $end
$scope begin genblk2 $end
$scope module ATI1 $end
$var wire 32 s" DIn [31:0] $end
$var wire 16 t" Sum [15:0] $end
$var wire 16 u" Sum_ [15:0] $end
$var wire 1 _ clk $end
$var wire 1 ` en $end
$var wire 16 v" subLevelSum1 [15:0] $end
$var wire 16 w" subLevelSum2 [15:0] $end
$scope module aS $end
$var wire 16 x" In1 [15:0] $end
$var wire 16 y" In2 [15:0] $end
$var wire 1 z" IsSameSign $end
$var wire 1 {" IsSignChanged $end
$var wire 16 |" Out [15:0] $end
$var wire 16 }" TestAdd [15:0] $end
$scope begin genblk4 $end
$scope begin genblk5 $end
$upscope $end
$upscope $end
$upscope $end
$scope module RoW $end
$var wire 1 _ clk $end
$var wire 1 ` en $end
$var wire 16 ~" in [15:0] $end
$var wire 16 !# out [15:0] $end
$scope begin genblk1 $end
$upscope $end
$upscope $end
$scope begin genblk1 $end
$upscope $end
$scope begin genblk3 $end
$upscope $end
$upscope $end
$upscope $end
$scope begin genblk4 $end
$scope module ATI1 $end
$var wire 32 "# DIn [31:0] $end
$var wire 16 ## Sum [15:0] $end
$var wire 16 $# Sum_ [15:0] $end
$var wire 1 _ clk $end
$var wire 1 ` en $end
$var wire 16 %# subLevelSum1 [15:0] $end
$var wire 16 &# subLevelSum2 [15:0] $end
$scope module aS $end
$var wire 16 '# In1 [15:0] $end
$var wire 16 (# In2 [15:0] $end
$var wire 1 )# IsSameSign $end
$var wire 1 *# IsSignChanged $end
$var wire 16 +# Out [15:0] $end
$var wire 16 ,# TestAdd [15:0] $end
$scope begin genblk4 $end
$scope begin genblk5 $end
$upscope $end
$upscope $end
$upscope $end
$scope module RoW $end
$var wire 1 _ clk $end
$var wire 1 ` en $end
$var wire 16 -# in [15:0] $end
$var wire 16 .# out [15:0] $end
$scope begin genblk1 $end
$upscope $end
$upscope $end
$scope begin genblk1 $end
$upscope $end
$scope begin genblk3 $end
$upscope $end
$upscope $end
$upscope $end
$upscope $end
$upscope $end
$scope begin genblk4 $end
$scope module ATI1 $end
$var wire 64 /# DIn [63:0] $end
$var wire 16 0# Sum [15:0] $end
$var wire 16 1# Sum_ [15:0] $end
$var wire 1 _ clk $end
$var wire 1 ` en $end
$var wire 16 2# subLevelSum1 [15:0] $end
$var wire 16 3# subLevelSum2 [15:0] $end
$scope module aS $end
$var wire 16 4# In1 [15:0] $end
$var wire 16 5# In2 [15:0] $end
$var wire 1 6# IsSameSign $end
$var wire 1 7# IsSignChanged $end
$var wire 16 8# Out [15:0] $end
$var wire 16 9# TestAdd [15:0] $end
$scope begin genblk4 $end
$scope begin genblk5 $end
$upscope $end
$upscope $end
$upscope $end
$scope module RoW $end
$var wire 1 _ clk $end
$var wire 1 ` en $end
$var wire 16 :# in [15:0] $end
$var wire 16 ;# out [15:0] $end
$scope begin genblk1 $end
$upscope $end
$upscope $end
$scope begin genblk2 $end
$scope module ATI1 $end
$var wire 32 <# DIn [31:0] $end
$var wire 16 =# Sum [15:0] $end
$var wire 16 ># Sum_ [15:0] $end
$var wire 1 _ clk $end
$var wire 1 ` en $end
$var wire 16 ?# subLevelSum1 [15:0] $end
$var wire 16 @# subLevelSum2 [15:0] $end
$scope module aS $end
$var wire 16 A# In1 [15:0] $end
$var wire 16 B# In2 [15:0] $end
$var wire 1 C# IsSameSign $end
$var wire 1 D# IsSignChanged $end
$var wire 16 E# Out [15:0] $end
$var wire 16 F# TestAdd [15:0] $end
$scope begin genblk4 $end
$scope begin genblk5 $end
$upscope $end
$upscope $end
$upscope $end
$scope module RoW $end
$var wire 1 _ clk $end
$var wire 1 ` en $end
$var wire 16 G# in [15:0] $end
$var wire 16 H# out [15:0] $end
$scope begin genblk1 $end
$upscope $end
$upscope $end
$scope begin genblk1 $end
$upscope $end
$scope begin genblk3 $end
$upscope $end
$upscope $end
$upscope $end
$scope begin genblk4 $end
$scope module ATI1 $end
$var wire 32 I# DIn [31:0] $end
$var wire 16 J# Sum [15:0] $end
$var wire 16 K# Sum_ [15:0] $end
$var wire 1 _ clk $end
$var wire 1 ` en $end
$var wire 16 L# subLevelSum1 [15:0] $end
$var wire 16 M# subLevelSum2 [15:0] $end
$scope module aS $end
$var wire 16 N# In1 [15:0] $end
$var wire 16 O# In2 [15:0] $end
$var wire 1 P# IsSameSign $end
$var wire 1 Q# IsSignChanged $end
$var wire 16 R# Out [15:0] $end
$var wire 16 S# TestAdd [15:0] $end
$scope begin genblk4 $end
$scope begin genblk5 $end
$upscope $end
$upscope $end
$upscope $end
$scope module RoW $end
$var wire 1 _ clk $end
$var wire 1 ` en $end
$var wire 16 T# in [15:0] $end
$var wire 16 U# out [15:0] $end
$scope begin genblk1 $end
$upscope $end
$upscope $end
$scope begin genblk1 $end
$upscope $end
$scope begin genblk3 $end
$upscope $end
$upscope $end
$upscope $end
$upscope $end
$upscope $end
$upscope $end
$scope module round_acc $end
$var wire 16 V# in [15:0] $end
$var wire 16 W# out [15:0] $end
$scope begin genblk4 $end
$upscope $end
$upscope $end
$upscope $end
$scope begin foldLoop[0] $end
$scope module aS $end
$var wire 8 X# In1 [7:0] $end
$var wire 8 Y# In2 [7:0] $end
$var wire 1 Z# IsSameSign $end
$var wire 1 [# IsSignChanged $end
$var wire 9 \# Out [8:0] $end
$var wire 9 ]# TestAdd [8:0] $end
$scope begin genblk4 $end
$scope begin genblk5 $end
$upscope $end
$upscope $end
$upscope $end
$upscope $end
$scope begin foldLoop[1] $end
$scope module aS $end
$var wire 8 ^# In1 [7:0] $end
$var wire 8 _# In2 [7:0] $end
$var wire 1 `# IsSameSign $end
$var wire 1 a# IsSignChanged $end
$var wire 9 b# Out [8:0] $end
$var wire 9 c# TestAdd [8:0] $end
$scope begin genblk4 $end
$scope begin genblk5 $end
$upscope $end
$upscope $end
$upscope $end
$upscope $end
$scope begin foldLoop[2] $end
$scope module aS $end
$var wire 8 d# In1 [7:0] $end
$var wire 8 e# In2 [7:0] $end
$var wire 1 f# IsSameSign $end
$var wire 1 g# IsSignChanged $end
$var wire 9 h# Out [8:0] $end
$var wire 9 i# TestAdd [8:0] $end
$scope begin genblk4 $end
$scope begin genblk5 $end
$upscope $end
$upscope $end
$upscope $end
$upscope $end
$scope begin foldLoop[3] $end
$scope module aS $end
$var wire 8 j# In1 [7:0] $end
$var wire 8 k# In2 [7:0] $end
$var wire 1 l# IsSameSign $end
$var wire 1 m# IsSignChanged $end
$var wire 9 n# Out [8:0] $end
$var wire 9 o# TestAdd [8:0] $end
$scope begin genblk4 $end
$scope begin genblk5 $end
$upscope $end
$upscope $end
$upscope $end
$upscope $end
$scope begin foldLoop[4] $end
$scope module aS $end
$var wire 8 p# In1 [7:0] $end
$var wire 8 q# In2 [7:0] $end
$var wire 1 r# IsSameSign $end
$var wire 1 s# IsSignChanged $end
$var wire 9 t# Out [8:0] $end
$var wire 9 u# TestAdd [8:0] $end
$scope begin genblk4 $end
$scope begin genblk5 $end
$upscope $end
$upscope $end
$upscope $end
$upscope $end
$scope begin foldLoop[5] $end
$scope module aS $end
$var wire 8 v# In1 [7:0] $end
$var wire 8 w# In2 [7:0] $end
$var wire 1 x# IsSameSign $end
$var wire 1 y# IsSignChanged $end
$var wire 9 z# Out [8:0] $end
$var wire 9 {# TestAdd [8:0] $end
$scope begin genblk4 $end
$scope begin genblk5 $end
$upscope $end
$upscope $end
$upscope $end
$upscope $end
$scope begin foldLoop[6] $end
$scope module aS $end
$var wire 8 |# In1 [7:0] $end
$var wire 8 }# In2 [7:0] $end
$var wire 1 ~# IsSameSign $end
$var wire 1 !$ IsSignChanged $end
$var wire 9 "$ Out [8:0] $end
$var wire 9 #$ TestAdd [8:0] $end
$scope begin genblk4 $end
$scope begin genblk5 $end
$upscope $end
$upscope $end
$upscope $end
$upscope $end
$scope begin foldLoop[7] $end
$scope module aS $end
$var wire 8 $$ In1 [7:0] $end
$var wire 8 %$ In2 [7:0] $end
$var wire 1 &$ IsSameSign $end
$var wire 1 '$ IsSignChanged $end
$var wire 9 ($ Out [8:0] $end
$var wire 9 )$ TestAdd [8:0] $end
$scope begin genblk4 $end
$scope begin genblk5 $end
$upscope $end
$upscope $end
$upscope $end
$upscope $end
$upscope $end
$scope module TB1 $end
$var wire 8 *$ AA [7:0] $end
$var wire 8 +$ BB [7:0] $end
$var wire 9 ,$ CC [8:0] $end
$var wire 1 -$ ZZZ $end
$var wire 15 .$ satOut [14:0] $end
$var reg 1 /$ clk_ $end
$var integer 32 0$ counter [31:0] $end
$scope module Mul $end
$var wire 7 1$ In1 [6:0] $end
$var wire 7 2$ In2 [6:0] $end
$var wire 8 3$ Out [7:0] $end
$var wire 13 4$ Out_ [12:0] $end
$scope module roun $end
$var wire 13 5$ in [12:0] $end
$var wire 8 6$ out [7:0] $end
$scope begin genblk2 $end
$upscope $end
$upscope $end
$scope begin genblk2 $end
$var wire 7 7$ In1_s [6:0] $end
$var wire 7 8$ In2_s [6:0] $end
$var wire 13 9$ Out_s [12:0] $end
$upscope $end
$upscope $end
$scope module Muluns $end
$var wire 8 :$ In1 [7:0] $end
$var wire 8 ;$ In2 [7:0] $end
$var wire 8 <$ Out [7:0] $end
$var wire 16 =$ Out_ [15:0] $end
$scope module roun $end
$var wire 16 >$ in [15:0] $end
$var wire 8 ?$ out [7:0] $end
$scope begin genblk2 $end
$upscope $end
$upscope $end
$scope begin genblk1 $end
$upscope $end
$upscope $end
$scope module Adder $end
$var wire 8 @$ In1 [7:0] $end
$var wire 8 A$ In2 [7:0] $end
$var wire 1 B$ IsSameSign $end
$var wire 1 C$ IsSignChanged $end
$var wire 8 D$ Out [7:0] $end
$var wire 8 E$ TestAdd [7:0] $end
$scope begin genblk4 $end
$scope begin genblk5 $end
$upscope $end
$upscope $end
$upscope $end
$scope module AdderuS $end
$var wire 8 F$ In1 [7:0] $end
$var wire 8 G$ In2 [7:0] $end
$var wire 1 H$ IsSameSign $end
$var wire 1 I$ IsSignChanged $end
$var wire 8 J$ Out [7:0] $end
$var wire 8 K$ TestAdd [7:0] $end
$scope begin genblk1 $end
$var wire 8 L$ In2_ [7:0] $end
$scope begin genblk2 $end
$upscope $end
$upscope $end
$upscope $end
$scope module sat $end
$var wire 15 M$ dataIn [14:0] $end
$var wire 15 N$ dataOut [14:0] $end
$var wire 1 O$ sign $end
$scope begin genblk2 $end
$var wire 15 P$ Out [14:0] $end
$var wire 3 Q$ Out_ [2:0] $end
$upscope $end
$upscope $end
$upscope $end
$enddefinitions $end
#0
$dumpvars
b101 Q$
b111111111111101 P$
1O$
b111111111111101 N$
b111111110011100 M$
b1 L$
b0 K$
b0 J$
1I$
0H$
b1 G$
b11111111 F$
b0 E$
b0 D$
0C$
0B$
b10000001 A$
b1111111 @$
b1000000 ?$
b100000000000000 >$
b100000000000000 =$
b1000000 <$
b10000000 ;$
b10000000 :$
b111110000001 9$
b1000001 8$
b1000001 7$
b1111100 6$
b111110000001 5$
b111110000001 4$
b1111100 3$
b1000001 2$
b1000001 1$
b11111111111111111111111110011100 0$
0/$
b111111111111101 .$
0-$
b100000001 ,$
b11111111 +$
b0 *$
bx )$
bx ($
x'$
x&$
bz %$
bz $$
bx #$
bx "$
x!$
x~#
bz }#
bz |#
bx {#
bx z#
xy#
xx#
bz w#
bz v#
bx u#
bx t#
xs#
xr#
bz q#
bz p#
bx o#
bx n#
xm#
xl#
bz k#
bz j#
bx i#
bx h#
xg#
xf#
bz e#
bz d#
bx c#
bx b#
xa#
x`#
bz _#
bz ^#
bx ]#
bx \#
x[#
xZ#
bz Y#
bz X#
bx W#
bx V#
bx U#
bx T#
bx S#
bx R#
xQ#
xP#
bx O#
bx N#
bx M#
bx L#
bx K#
bx J#
bx I#
bx H#
bx G#
bx F#
bx E#
xD#
xC#
bx B#
bx A#
bx @#
bx ?#
bx >#
bx =#
bx <#
bx ;#
bx :#
bx 9#
bx 8#
x7#
x6#
bx 5#
bx 4#
bx 3#
bx 2#
bx 1#
bx 0#
bx /#
bx .#
bx -#
bx ,#
bx +#
x*#
x)#
bx (#
bx '#
bx &#
bx %#
bx $#
bx ##
bx "#
bx !#
bx ~"
bx }"
bx |"
x{"
xz"
bx y"
bx x"
bx w"
bx v"
bx u"
bx t"
bx s"
bx r"
bx q"
bx p"
bx o"
xn"
xm"
bx l"
bx k"
bx j"
bx i"
bx h"
bx g"
bx f"
bx e"
bx d"
bx c"
bx b"
xa"
x`"
bx _"
bx ^"
bx ]"
bx \"
bx ["
bx Z"
bx Y"
bx X"
bx W"
bx V"
bz U"
bx T"
bx S"
bx R"
bx Q"
bx P"
bz O"
bx N"
bx M"
bz L"
bx K"
bx J"
bx I"
bx H"
bx G"
bz F"
bx E"
bx D"
bz C"
bx B"
bx A"
bx @"
bx ?"
bx >"
bz ="
bx <"
bx ;"
bz :"
bx 9"
bx 8"
bx 7"
bx 6"
bx 5"
bz 4"
bx 3"
bx 2"
bz 1"
bx 0"
bx /"
bx ."
bx -"
bx ,"
bz +"
bx *"
bx )"
bz ("
bx '"
bx &"
bx %"
bx $"
bx #"
bz ""
bx !"
bx ~
bz }
bx |
bx {
bx z
bx y
bx x
bz w
bx v
bx u
bz t
bx s
bx r
bx q
bx p
bx o
bz n
bx m
bx l
bz k
bx j
bx i
bx h
bx g
bx f
bz e
bx d
bx c
bx b
xa
z`
z_
bx ^
bx ]
bx \
bz [
bz Z
bx Y
bx X
bx W
bx V
xU
xT
bx S
bx R
bx Q
bx P
bx O
bz N
bz M
bx L
bx K
bx J
bx I
bz H
bz G
bx F
bx E
bx D
zC
zB
bx A
bx @
bz ?
bz >
bx =
bx <
x;
x:
bx 9
bx 8
bx 7
bx 6
x5
x4
bx 3
bx 2
bx 1
bx 0
x/
x.
bx -
bx ,
bx +
bx *
x)
x(
bx '
bx &
bx %
bz $
bz #
bx "
bz !
$end
#2
b111111110011101 M$
b11111111111111111111111110011101 0$
1/$
#4
0/$
#6
b111111110011110 M$
b11111111111111111111111110011110 0$
1/$
#8
0/$
#10
b111111110011111 M$
b11111111111111111111111110011111 0$
1/$
#12
0/$
#14
b111111110100000 M$
b11111111111111111111111110100000 0$
1/$
#16
0/$
#18
b111111110100001 M$
b11111111111111111111111110100001 0$
1/$
#20
0/$
#22
b111111110100010 M$
b11111111111111111111111110100010 0$
1/$
#24
0/$
#26
b111111110100011 M$
b11111111111111111111111110100011 0$
1/$
#28
0/$
#30
b111111110100100 M$
b11111111111111111111111110100100 0$
1/$
#32
0/$
#34
b111111110100101 M$
b11111111111111111111111110100101 0$
1/$
#36
0/$
#38
b111111110100110 M$
b11111111111111111111111110100110 0$
1/$
#40
0/$
#42
b111111110100111 M$
b11111111111111111111111110100111 0$
1/$
#44
0/$
#46
b111111110101000 M$
b11111111111111111111111110101000 0$
1/$
#48
0/$
#50
b111111110101001 M$
b11111111111111111111111110101001 0$
1/$
#52
0/$
#54
b111111110101010 M$
b11111111111111111111111110101010 0$
1/$
#56
0/$
#58
b111111110101011 M$
b11111111111111111111111110101011 0$
1/$
#60
0/$
#62
b111111110101100 M$
b11111111111111111111111110101100 0$
1/$
#64
0/$
#66
b111111110101101 M$
b11111111111111111111111110101101 0$
1/$
#68
0/$
#70
b111111110101110 M$
b11111111111111111111111110101110 0$
1/$
#72
0/$
#74
b111111110101111 M$
b11111111111111111111111110101111 0$
1/$
#76
0/$
#78
b111111110110000 M$
b11111111111111111111111110110000 0$
1/$
#80
0/$
#82
b111111110110001 M$
b11111111111111111111111110110001 0$
1/$
#84
0/$
#86
b111111110110010 M$
b11111111111111111111111110110010 0$
1/$
#88
0/$
#90
b111111110110011 M$
b11111111111111111111111110110011 0$
1/$
#92
0/$
#94
b111111110110100 M$
b11111111111111111111111110110100 0$
1/$
#96
0/$
#98
b111111110110101 M$
b11111111111111111111111110110101 0$
1/$
#100
0/$
#102
b111111110110110 M$
b11111111111111111111111110110110 0$
1/$
#104
0/$
#106
b111111110110111 M$
b11111111111111111111111110110111 0$
1/$
#108
0/$
#110
b111111110111000 M$
b11111111111111111111111110111000 0$
1/$
#112
0/$
#114
b111111110111001 M$
b11111111111111111111111110111001 0$
1/$
#116
0/$
#118
b111111110111010 M$
b11111111111111111111111110111010 0$
1/$
#120
0/$
#122
b111111110111011 M$
b11111111111111111111111110111011 0$
1/$
#124
0/$
#126
b111111110111100 M$
b11111111111111111111111110111100 0$
1/$
#128
0/$
#130
b111111110111101 M$
b11111111111111111111111110111101 0$
1/$
#132
0/$
#134
b111111110111110 M$
b11111111111111111111111110111110 0$
1/$
#136
0/$
#138
b111111110111111 M$
b11111111111111111111111110111111 0$
1/$
#140
0/$
#142
b111111111000000 M$
b11111111111111111111111111000000 0$
1/$
#144
0/$
#146
b111111111000001 M$
b11111111111111111111111111000001 0$
1/$
#148
0/$
#150
b111111111000010 M$
b11111111111111111111111111000010 0$
1/$
#152
0/$
#154
b111111111000011 M$
b11111111111111111111111111000011 0$
1/$
#156
0/$
#158
b111111111000100 M$
b11111111111111111111111111000100 0$
1/$
#160
0/$
#162
b111111111000101 M$
b11111111111111111111111111000101 0$
1/$
#164
0/$
#166
b111111111000110 M$
b11111111111111111111111111000110 0$
1/$
#168
0/$
#170
b111111111000111 M$
b11111111111111111111111111000111 0$
1/$
#172
0/$
#174
b111111111001000 M$
b11111111111111111111111111001000 0$
1/$
#176
0/$
#178
b111111111001001 M$
b11111111111111111111111111001001 0$
1/$
#180
0/$
#182
b111111111001010 M$
b11111111111111111111111111001010 0$
1/$
#184
0/$
#186
b111111111001011 M$
b11111111111111111111111111001011 0$
1/$
#188
0/$
#190
b111111111001100 M$
b11111111111111111111111111001100 0$
1/$
#192
0/$
#194
b111111111001101 M$
b11111111111111111111111111001101 0$
1/$
#196
0/$
#198
b111111111001110 M$
b11111111111111111111111111001110 0$
1/$
#200
0/$
#202
b111111111001111 M$
b11111111111111111111111111001111 0$
1/$
#204
0/$
#206
b111111111010000 M$
b11111111111111111111111111010000 0$
1/$
#208
0/$
#210
b111111111010001 M$
b11111111111111111111111111010001 0$
1/$
#212
0/$
#214
b111111111010010 M$
b11111111111111111111111111010010 0$
1/$
#216
0/$
#218
b111111111010011 M$
b11111111111111111111111111010011 0$
1/$
#220
0/$
#222
b111111111010100 M$
b11111111111111111111111111010100 0$
1/$
#224
0/$
#226
b111111111010101 M$
b11111111111111111111111111010101 0$
1/$
#228
0/$
#230
b111111111010110 M$
b11111111111111111111111111010110 0$
1/$
#232
0/$
#234
b111111111010111 M$
b11111111111111111111111111010111 0$
1/$
#236
0/$
#238
b111111111011000 M$
b11111111111111111111111111011000 0$
1/$
#240
0/$
#242
b111111111011001 M$
b11111111111111111111111111011001 0$
1/$
#244
0/$
#246
b111111111011010 M$
b11111111111111111111111111011010 0$
1/$
#248
0/$
#250
b111111111011011 M$
b11111111111111111111111111011011 0$
1/$
#252
0/$
#254
b111111111011100 M$
b11111111111111111111111111011100 0$
1/$
#256
0/$
#258
b111111111011101 M$
b11111111111111111111111111011101 0$
1/$
#260
0/$
